Correlations between phenotypes
…
## number of observations in each domain & phenotype
pheno %>% group_by(procedure_name, parameter_name) %>% summarise(num.obs=length(parameter_name))

# A tibble: 28 x 3
# Groups:   procedure_name [9]
   procedure_name                      parameter_name               num.obs
   <chr>                               <chr>                          <int>
 1 Acoustic Startle and Pre-pulse Inh… % Pre-pulse inhibition - Gl…   24440
 2 Acoustic Startle and Pre-pulse Inh… % Pre-pulse inhibition - PP…   24440
 3 Acoustic Startle and Pre-pulse Inh… % Pre-pulse inhibition - PP…   24440
 4 Acoustic Startle and Pre-pulse Inh… % Pre-pulse inhibition - PP…   24440
 5 Acoustic Startle and Pre-pulse Inh… % Pre-pulse inhibition - PP…   12610
 6 Acoustic Startle and Pre-pulse Inh… Response amplitude - S         24452
 7 Combined SHIRPA and Dysmorphology   Locomotor activity             23444
 8 Fear Conditioning                   Conditioning Baseline % Fre…    2536
 9 Fear Conditioning                   Context % Freezing Time         2536
10 Fear Conditioning                   Cue Baseline % Freezing Time    2536
# … with 18 more rows
…
