IMPC EDA
…
#allele(gene) name
chem_allel = length(unique(clinical_chem$allele_name))
chem_allel

[1] 255

What kind of phenotypes are tested in each research institution?

clinical_chem %>% 
  mutate(phenotyping_center = as.factor(phenotyping_center)) %>% 
  select(phenotyping_center, parameter_name) %>% 
  group_by(phenotyping_center, parameter_name) %>% 
  summarize(test=n())

# A tibble: 279 x 3
# Groups:   phenotyping_center [12]
   phenotyping_center parameter_name              test
   <fct>              <chr>                      <int>
 1 BCM                Alanine aminotransferase     100
 2 BCM                Albumin                      101
 3 BCM                Alkaline phosphatase          96
 4 BCM                Aspartate aminotransferase   100
 5 BCM                Calcium                       99
 6 BCM                Chloride                      85
 7 BCM                Creatine kinase                3
 8 BCM                Creatinine                    82
 9 BCM                Glucose                       98
10 BCM                HDL-cholesterol               14
# … with 269 more rows
…
clinical_chem %>% 
  filter(genotype_effect_p_value < 0.05) %>% 
  summarise(n())

    n()
1 10020

clinical_chem %>% 
  select(allele_symbol, parameter_name, genotype_effect_p_value) %>% 
  group_by(allele_symbol, parameter_name) %>% 
  filter(genotype_effect_p_value < 0.05) %>% 
  summarise(n())

# A tibble: 8,751 x 3
# Groups:   allele_symbol [2,388]
   allele_symbol                  parameter_name             `n()`
   <chr>                          <chr>                      <int>
 1 1110017D15Rik<em1(IMPC)H>      Fructosamine                   1
 2 1110017D15Rik<em1(IMPC)H>      Total bilirubin                1
 3 1110032A03Rik<tm1.1(KOMP)Vlcg> Glucose                        1
 4 1110059G10Rik<tm1a(KOMP)Wtsi>  Sodium                         1
 5 1500009L16Rik<em1(IMPC)Mbp>    Albumin                        1
 6 1500009L16Rik<em1(IMPC)Mbp>    Aspartate aminotransferase     1
 7 1500009L16Rik<em1(IMPC)Mbp>    Calcium                        1
 8 1500009L16Rik<em1(IMPC)Mbp>    Creatinine                     1
 9 1500009L16Rik<em1(IMPC)Mbp>    Glucose                        1
10 1500009L16Rik<em1(IMPC)Mbp>    Total protein                  1
# … with 8,741 more rows
…
